[
  {
    "content": "I am the content of the first slide.",
    "circle": {
      "x": 34,
      "y": 13
    },
    "position": {
      "x": 10,
      "y": 30
    },
    "time": {
      "start": 1.2,
      "end": 3.5
    }
  },
  {
    "content": "I am the content of the second slide.",
    "circle": {
      "x": 50,
      "y": 20
    },
    "position": {
      "x": 30,
      "y": 10
    },
    "time": {
      "start": 4,
      "end": 6
    }
  },
  {
    "content": "I am the content of the third slide.",
    "circle": {
      "x": 54,
      "y": 70
    },
    "position": {
      "x": 40,
      "y": 40
    },
    "time": {
      "start": 9,
      "end": 12
    }
  }
]
